[{
      "relation": ["delegate_permission/common.handle_all_urls"],
      "target" : { "namespace": "android_app", "package_name": "kz.jolai.twa",
                   "sha256_cert_fingerprints": ["E1:52:39:E3:07:76:A8:E1:58:46:31:12:96:9B:62:F9:90:A8:68:D3:D1:3B:5A:4A:33:F8:7F:1C:70:B4:BC:D1"] }
    }]
